%YAML 1.1
%TAG !u! tag:unity3d.com,2011:
--- !u!114 &11400000
MonoBehaviour:
  m_ObjectHideFlags: 0
  m_CorrespondingSourceObject: {fileID: 0}
  m_PrefabInstance: {fileID: 0}
  m_PrefabAsset: {fileID: 0}
  m_GameObject: {fileID: 0}
  m_Enabled: 1
  m_EditorHideFlags: 0
  m_Script: {fileID: 11500000, guid: ee524cc630ee5974e84ec26d75cd4b34, type: 3}
  m_Name: SimpleCube
  m_EditorClassIdentifier: 
  _totalTravelDurationInSeconds: 20
  damage: 75
  hp: 200
